[
    {
        "ParameterKey": "VpcCidrBlock",
        "ParameterValue": "10.0.0.0/16"
    },
    {
        "ParameterKey": "PublicCidrBlock",
        "ParameterValue": "10.0.0.0/24"
    },
    {
        "ParameterKey": "PrivateCidrBlock",
        "ParameterValue": "10.0.126.0/24"
    },
    {
        "ParameterKey": "KeyName",
        "ParameterValue": "xxxxxxxxxxxx"
    },
    {
        "ParameterKey": "MyIP",
        "ParameterValue": "X.X.X.X/X"
    },
    {
        "ParameterKey": "NameTag",
        "ParameterValue": "fmi-exercise-1"
    }
]